<?xml version="1.0" encoding="UTF-8" standalone="no"?>
<!-- Created with Inkscape (http://www.inkscape.org/) -->

<svg
   width="29.454428mm"
   height="28.210644mm"
   viewBox="0 0 29.454427 28.210644"
   version="1.1"
   id="svg1"
   inkscape:version="1.3.2 (091e20e, 2023-11-25, custom)"
   sodipodi:docname="patte_de_chat.svg"
   inkscape:export-filename="patte_de_chat.png"
   inkscape:export-xdpi="96"
   inkscape:export-ydpi="96"
   xmlns:inkscape="http://www.inkscape.org/namespaces/inkscape"
   xmlns:sodipodi="http://sodipodi.sourceforge.net/DTD/sodipodi-0.dtd"
   xmlns="http://www.w3.org/2000/svg"
   xmlns:svg="http://www.w3.org/2000/svg">
  <sodipodi:namedview
     id="namedview1"
     pagecolor="#ffffff"
     bordercolor="#000000"
     borderopacity="0.25"
     inkscape:showpageshadow="2"
     inkscape:pageopacity="0.0"
     inkscape:pagecheckerboard="0"
     inkscape:deskcolor="#d1d1d1"
     inkscape:document-units="mm"
     inkscape:zoom="1.4805976"
     inkscape:cx="39.511073"
     inkscape:cy="97.595728"
     inkscape:window-width="1920"
     inkscape:window-height="1009"
     inkscape:window-x="-8"
     inkscape:window-y="-8"
     inkscape:window-maximized="1"
     inkscape:current-layer="layer1" />
  <defs
     id="defs1" />
  <g
     inkscape:label="Calque 1"
     inkscape:groupmode="layer"
     id="layer1"
     transform="translate(-71.352552,-30.962697)">
    <g
       id="g2"
       transform="matrix(0.58384743,-0.32184309,0.31997407,0.58045689,19.124939,53.28475)">
      <path
         id="path1"
         style="stroke:#000000;stroke-width:0.4;stroke-linecap:square;stroke-linejoin:round"
         d="m 108.29242,49.321297 c 0,2.755414 -0.3006,5.790504 -2.25365,7.432057 -2.88366,2.42373 -6.126332,-1.892346 -10.612778,-1.892347 -4.538988,0 -7.821737,4.351336 -11.05199,1.769028 -1.955378,-1.563156 -2.171836,-4.606587 -2.171836,-7.308738 0,-3.57148 5.417468,-4.489168 7.687395,-6.868608 2.371845,-2.486276 1.676324,-6.355219 5.357731,-6.355219 3.859292,0 4.021205,4.021941 6.409608,6.722145 2.07033,2.340607 6.63552,3.110523 6.63552,6.501682 z"
         sodipodi:nodetypes="sssssssss" />
      <ellipse
         style="fill:#000000;stroke:#000000;stroke-width:0.412912;stroke-linecap:square;stroke-linejoin:round"
         id="path2"
         cx="46.197151"
         cy="70.997719"
         rx="4.6397529"
         ry="6.2927313"
         transform="rotate(-31.356584)" />
      <ellipse
         style="fill:#000000;stroke:#000000;stroke-width:0.438754;stroke-linecap:square;stroke-linejoin:round"
         id="path2-3"
         cx="81.435722"
         cy="43.978779"
         rx="4.6355982"
         ry="7.1114254"
         transform="rotate(-11.205141)" />
      <ellipse
         style="fill:#000000;stroke:#000000;stroke-width:0.438754;stroke-linecap:square;stroke-linejoin:round"
         id="path2-5"
         cx="107.39428"
         cy="5.0630131"
         rx="4.6355982"
         ry="7.1114254"
         transform="rotate(12.05133)" />
      <ellipse
         style="fill:#000000;stroke:#000000;stroke-width:0.412912;stroke-linecap:square;stroke-linejoin:round"
         id="path2-6"
         cx="117.06881"
         cy="-25.890181"
         rx="4.6397529"
         ry="6.2927313"
         transform="rotate(30.560624)" />
    </g>
  </g>
</svg>
